src/fifo_test/tests/fifo_sim.vcd
$date
	Sun May  4 23:43:43 2025
$end
$version
	Icarus Verilog
$end
$timescale
	1ps
$end
$scope module fifo_test $end
$var wire 16 ! data_in [15:0] $end
$var wire 1 " pop $end
$var wire 1 # push $end
$var wire 1 $ reset $end
$var wire 16 % out [15:0] $end
$var wire 5 & num [4:0] $end
$var wire 1 ' full $end
$var wire 1 ( empty $end
$var wire 1 ) almostfull $end
$var wire 1 * almostempty $end
$var parameter 32 + AWIDTH $end
$var parameter 32 , DEPTH $end
$var parameter 32 - DWIDTH $end
$var reg 1 . clk $end
$scope module dut $end
$var wire 1 . clk $end
$var wire 1 / fifoRdValid $end
$var wire 1 0 fifoWrValid $end
$var wire 16 1 in [15:0] $end
$var wire 1 " pop $end
$var wire 1 # push $end
$var wire 1 $ reset $end
$var wire 16 2 out [15:0] $end
$var wire 1 ' full $end
$var wire 1 ( empty $end
$var wire 1 ) almostfull $end
$var wire 1 * almostempty $end
$var parameter 32 3 ALMOSTEMPTY $end
$var parameter 33 4 ALMOSTFULL $end
$var parameter 32 5 AWIDTH $end
$var parameter 32 6 DEPTH $end
$var parameter 32 7 DWIDTH $end
$var reg 5 8 num [4:0] $end
$var reg 4 9 rPtr [3:0] $end
$var reg 4 : wPtr [3:0] $end
$var reg 16 ; wdReg [15:0] $end
$var reg 1 < weRAM $end
$scope module ram_i $end
$var wire 1 . clk $end
$var wire 4 = ra [3:0] $end
$var wire 4 > wa [3:0] $end
$var wire 16 ? wd [15:0] $end
$var wire 1 < we $end
$var parameter 32 @ AWIDTH $end
$var parameter 32 A DEPTH $end
$var parameter 32 B DWIDTH $end
$var reg 16 C rd [15:0] $end
$upscope $end
$upscope $end
$upscope $end
$enddefinitions $end
$comment Show the parameter values. $end
$dumpall
b10000 B
b10000 A
b100 @
b10000 7
b10000 6
b100 5
b1101 4
b11 3
b10000 -
b10000 ,
b100 +
$end
#0
$dumpvars
bx C
b0 ?
b0 >
b0 =
0<
b0 ;
b0 :
b0 9
b0 8
bx 2
b0 1
00
0/
1.
0*
0)
1(
0'
b0 &
bx %
1$
0#
0"
b0 !
$end
#5000
0.
#10000
1.
#15000
0.
#20000
0$
1.
#25000
0.
#30000
b0 %
b0 2
b0 C
1.
#35000
0.
#40000
10
1#
b111101110010000 !
b111101110010000 1
1.
#45000
0.
#50000
00
0#
0(
b1 &
b1 8
b111101110010000 ;
b111101110010000 ?
1<
1.
#55000
0.
#60000
10
1#
b1000111011011 !
b1000111011011 1
0<
b1 :
b1 >
1.
#65000
0.
#70000
00
0#
b10 &
b10 8
b1000111011011 ;
b1000111011011 ?
1<
b111101110010000 %
b111101110010000 2
b111101110010000 C
1.
#75000
0.
#80000
10
1#
b101011010100011 !
b101011010100011 1
0<
b10 :
b10 >
1.
#85000
0.
#90000
00
0#
1*
b11 &
b11 8
b101011010100011 ;
b101011010100011 ?
1<
1.
#95000
0.
#100000
10
1#
b1101100010011000 !
b1101100010011000 1
0<
b11 :
b11 >
1.
#105000
0.
#110000
00
0#
0*
b100 &
b100 8
b1101100010011000 ;
b1101100010011000 ?
1<
1.
#115000
0.
#120000
10
1#
b11000000000101 !
b11000000000101 1
0<
b100 :
b100 >
1.
#125000
0.
#130000
00
0#
b101 &
b101 8
b11000000000101 ;
b11000000000101 ?
1<
1.
#135000
0.
#140000
10
1#
b1101010100001010 !
b1101010100001010 1
0<
b101 :
b101 >
1.
#145000
0.
#150000
00
0#
b110 &
b110 8
b1101010100001010 ;
b1101010100001010 ?
1<
1.
#155000
0.
#160000
10
1#
b1101101101011000 !
b1101101101011000 1
0<
b110 :
b110 >
1.
#165000
0.
#170000
00
0#
b111 &
b111 8
b1101101101011000 ;
b1101101101011000 ?
1<
1.
#175000
0.
#180000
10
1#
b110011000100011 !
b110011000100011 1
0<
b111 :
b111 >
1.
#185000
0.
#190000
00
0#
b1000 &
b1000 8
b110011000100011 ;
b110011000100011 ?
1<
1.
#195000
0.
#200000
10
1#
b1111011110100000 !
b1111011110100000 1
0<
b1000 :
b1000 >
1.
#205000
0.
#210000
00
0#
b1001 &
b1001 8
b1111011110100000 ;
b1111011110100000 ?
1<
1.
#215000
0.
#220000
10
1#
b1101001110101000 !
b1101001110101000 1
0<
b1001 :
b1001 >
1.
#225000
0.
#230000
00
0#
b1010 &
b1010 8
b1101001110101000 ;
b1101001110101000 ?
1<
1.
#235000
0.
#240000
0<
b1010 :
b1010 >
1.
#245000
0.
#250000
1/
1"
1.
#255000
0.
#260000
0/
0"
b1 9
b1 =
b1001 &
b1001 8
1.
#265000
0.
#270000
b1000111011011 %
b1000111011011 2
b1000111011011 C
1.
#275000
0.
#280000
1/
1"
1.
#285000
0.
#290000
0/
0"
b1000 &
b1000 8
b10 9
b10 =
1.
#295000
0.
#300000
b101011010100011 %
b101011010100011 2
b101011010100011 C
1.
#305000
0.
#310000
1/
1"
1.
#315000
0.
#320000
0/
0"
b11 9
b11 =
b111 &
b111 8
1.
#325000
0.
#330000
b1101100010011000 %
b1101100010011000 2
b1101100010011000 C
1.
#335000
0.
#340000
1/
1"
1.
#345000
0.
#350000
0/
0"
b110 &
b110 8
b100 9
b100 =
1.
#355000
0.
#360000
b11000000000101 %
b11000000000101 2
b11000000000101 C
1.
#365000
0.
#370000
1/
1"
1.
#375000
0.
#380000
0/
0"
b101 9
b101 =
b101 &
b101 8
1.
#385000
0.
#390000
b1101010100001010 %
b1101010100001010 2
b1101010100001010 C
1.
#395000
0.
#400000
1/
1"
1.
#405000
0.
#410000
0/
0"
b100 &
b100 8
b110 9
b110 =
1.
#415000
0.
#420000
b1101101101011000 %
b1101101101011000 2
b1101101101011000 C
1.
#425000
0.
#430000
1/
1"
1.
#435000
0.
#440000
0/
0"
1*
b111 9
b111 =
b11 &
b11 8
1.
#445000
0.
#450000
b110011000100011 %
b110011000100011 2
b110011000100011 C
1.
#455000
0.
#460000
1/
1"
1.
#465000
0.
#470000
0/
0"
0*
b10 &
b10 8
b1000 9
b1000 =
1.
#475000
0.
#480000
b1111011110100000 %
b1111011110100000 2
b1111011110100000 C
1.
#485000
0.
#490000
1/
1"
1.
#495000
0.
#500000
0/
0"
b1001 9
b1001 =
b1 &
b1 8
1.
#505000
0.
#510000
b1101001110101000 %
b1101001110101000 2
b1101001110101000 C
1.
#515000
0.
#520000
1/
1"
1.
#525000
0.
#530000
0"
0/
1(
b0 &
b0 8
b1010 9
b1010 =
1.
#535000
0.
#540000
bx %
bx 2
bx C
1.
